…
  covid_data %>% 
  group_by(`Reported Date`) %>% 
  summarise(
    travel = sum(`Source of Infection` == "Travel"),
    healthcare = sum(`Source of Infection` == "Healthcare"),
    outbreak = sum(`Source of Infection` == "Outbreak associated"),
    contact = sum(`Source of Infection` == "Close contact"),
    community = sum(`Source of Infection` == "Community"),
    unknown = sum(`Source of Infection` == "Unknown/Missing"),
    institutional = sum(`Source of Infection` == "Institutional"),
    pending = sum(`Source of Infection` == "Pending"),
    total = n()
    )
head(covid_daily_stats, 30)
#> # A tibble: 30 × 10
#>    `Reported Date` travel healthcare outbreak contact
#>    <date>           <int>      <int>    <int>   <int>
#>  1 2020-01-23           2          0        0       0
#>  2 2020-02-21           1          0        0       0
#>  3 2020-02-25           1          0        0       0
#>  4 2020-02-26           1          0        0       0
#>  5 2020-02-27           1          0        0       0
#>  6 2020-02-28           1          0        0       0
#>  7 2020-02-29           1          0        0       0
#>  8 2020-03-01           2          0        0       0
#>  9 2020-03-02           1          0        0       0
#> 10 2020-03-03           1          0        0       0
#> # … with 20 more rows, and 5 more variables:
#> #   community <int>, unknown <int>, institutional <int>,
#> #   pending <int>, total <int>
```
…
