…
We notice that using `dplyr::filter()` we extracted no rows, whereas using the square brackets we extracted all of the rows but no columns.

Lastly, we want to see how `dplyr::filter()` works on grouped dataframes.

We begin by greating a grouped version of our `guineas` dataframe, through grouping by colour:


```r
grouped_guineas <- guineas %>% group_by(colour)
grouped_guineas
#> # A tibble: 60 × 4
#> # Groups:   colour [6]
#>      len supp   dose colour
#>    <dbl> <fct> <dbl> <chr> 
#>  1   4.2 VC      0.5 grey  
#>  2  11.5 VC      0.5 multi 
#>  3   7.3 VC      0.5 grey  
#>  4   5.8 VC      0.5 brown 
#>  5   6.4 VC      0.5 brown 
#>  6  10   VC      0.5 multi 
#>  7  11.2 VC      0.5 grey  
#>  8  11.2 VC      0.5 white 
#>  9   5.2 VC      0.5 cream 
#> 10   7   VC      0.5 multi 
#> # … with 50 more rows
```

And then we try filtering by receiving orange juice as the supplement, while preserving the grouping:


```r
orange_grouped_guineas <- grouped_guineas %>% filter(supp == "OJ", preserve=TRUE)
orange_grouped_guineas
#> # A tibble: 30 × 4
#> # Groups:   colour [6]
#>      len supp   dose colour
#>    <dbl> <fct> <dbl> <chr> 
#>  1  15.2 OJ      0.5 black 
#>  2  21.5 OJ      0.5 grey  
#>  3  17.6 OJ      0.5 white 
#>  4   9.7 OJ      0.5 cream 
#>  5  14.5 OJ      0.5 brown 
#>  6  10   OJ      0.5 white 
#>  7   8.2 OJ      0.5 black 
#>  8   9.4 OJ      0.5 black 
#>  9  16.5 OJ      0.5 brown 
#> 10   9.7 OJ      0.5 grey  
#> # … with 20 more rows
```
…
