…
```
#>                   teams gm1 gm2 gm3 gm4 gm5
#> 1       Toronto Raptors   l   l   w   w   w
#> 2    Los Angeles Lakers   l   w   w   l   w
#> 3        Boston Celtics   w   l   l   l   w
#> 4 Golden State Warriors   l   w   l   l   w
#> 5            Miami Heat   l   l   w   w   l
```

Run the code below and observe the effect it has on the dataset. Take note of the difference in the number of rows and columns between the two tables. This will be visualized and explained in greater detail in the following step.



```
#> # A tibble: 25 × 3
#>    teams              `game number` status
#>    <chr>              <chr>         <chr> 
#>  1 Toronto Raptors    gm1           l     
#>  2 Toronto Raptors    gm2           l     
#>  3 Toronto Raptors    gm3           w     
#>  4 Toronto Raptors    gm4           w     
#>  5 Toronto Raptors    gm5           w     
#>  6 Los Angeles Lakers gm1           l     
#>  7 Los Angeles Lakers gm2           w     
#>  8 Los Angeles Lakers gm3           w     
#>  9 Los Angeles Lakers gm4           l     
#> 10 Los Angeles Lakers gm5           w     
#> # … with 15 more rows
```
…
- **values_to**: similar to **names_to**, this represents a new name for the column created for the data that was originally stored in each individual cell. If left blank, the new column name will automatically be set to "values". *In our example, we set the name to "status" since the column contains information representing each team's win or loss outcome for a given game*.


## pivot_wider()

`pivot_wider()` takes the inputted dataset and makes it **wider** by rearranging its data to **decrease the number of rows** and **increase the number of columns**. `pivot_wider()` is essentially the inverse of `pivot_longer()` - the two transformations can be used to switch a data frame back and forth between its "longer" and "wider" forms.

### Introductory Example

This is a dataset called `games_long`, a "longer" version of `games` (the result of applying `pivot_longer()` to the original data frame).


```
#> # A tibble: 25 × 3
#>    teams              `game number` status
#>    <chr>              <chr>         <chr> 
#>  1 Toronto Raptors    gm1           l     
#>  2 Toronto Raptors    gm2           l     
#>  3 Toronto Raptors    gm3           w     
#>  4 Toronto Raptors    gm4           w     
#>  5 Toronto Raptors    gm5           w     
#>  6 Los Angeles Lakers gm1           l     
#>  7 Los Angeles Lakers gm2           w     
#>  8 Los Angeles Lakers gm3           w     
#>  9 Los Angeles Lakers gm4           l     
#> 10 Los Angeles Lakers gm5           w     
#> # … with 15 more rows
```
…
### pivot_wider()

Original `games_long` data, for reference.


```
#> # A tibble: 25 × 3
#>    teams              `game number` status
#>    <chr>              <chr>         <chr> 
#>  1 Toronto Raptors    gm1           l     
#>  2 Toronto Raptors    gm2           l     
#>  3 Toronto Raptors    gm3           w     
#>  4 Toronto Raptors    gm4           w     
#>  5 Toronto Raptors    gm5           w     
#>  6 Los Angeles Lakers gm1           l     
#>  7 Los Angeles Lakers gm2           w     
#>  8 Los Angeles Lakers gm3           w     
#>  9 Los Angeles Lakers gm4           l     
#> 10 Los Angeles Lakers gm5           w     
#> # … with 15 more rows
```
…
