…
<img src="082-to_ggplot_or_not_to_ggplot-barcharts_files/figure-html/bar-graph-coord-flip-1.png" width="672" />


## Exercises

### Plot a Simple Bar Chart

Create a bar chart of the type of birth for the lemurs in the `animals` dataset. (Hint: the variable for type of birth is `birth_type`)

```r
# Enter code below
animals
#> # A tibble: 3,749 × 20
#>    animal_id studbook_id name   taxonomic_code species sex  
#>    <chr>     <chr>       <chr>  <chr>          <chr>   <chr>
#>  1 0001      <NA>        White… OGG            Northe… F    
#>  2 0002      <NA>        Bruis… OGG            Northe… M    
#>  3 0003      <NA>        George OGG            Northe… M    
#>  4 0004      <NA>        Tigger OGG            Northe… M    
#>  5 0005      <NA>        Kanga  OGG            Northe… M    
#>  6 0006      <NA>        Roo    OGG            Northe… F    
#>  7 0007      <NA>        Hermit OGG            Northe… M    
#>  8 0008      <NA>        Pigle… OGG            Northe… F    
#>  9 0009      <NA>        Pooh … OGG            Northe… M    
#> 10 0010      <NA>        Eeyore OGG            Northe… M    
#> # … with 3,739 more rows, and 14 more variables:
#> #   birth_date <date>, birth_type <chr>, litter_size <dbl>,
#> #   death_date <date>, mother_id <chr>, mother_name <chr>,
#> #   mother_taxonomic_code <chr>, mother_species <chr>,
#> #   mother_birth_date <date>, father_id <chr>,
#> #   father_name <chr>, father_taxonomic_code <chr>,
#> #   father_species <chr>, father_birth_date <date>
```
…
