Chapter 31 Grouping and ungrouping | DoSS Toolkit
…
The group_by function can also be used with multiple variables. This is an example of using two variables to group our data, this time we will use species and sex. Once again, we can see that visually, the data doesn’t look different but when we apply other functions to it, the data will appear differently.

penguins %>% 
  group_by(species, sex, year) %>% 
  summarise(average_weight = mean(body_mass_g, na.rm = T))
#> `summarise()` has grouped output by 'species', 'sex'. You can override using the `.groups` argument.
#> # A tibble: 22 × 4
#> # Groups:   species, sex [8]
#>    species   sex     year average_weight
#>    <fct>     <fct>  <int>          <dbl>
#>  1 Adelie    female  2007          3390.
#>  2 Adelie    female  2008          3386 
#>  3 Adelie    female  2009          3335.
#>  4 Adelie    male    2007          4039.
#>  5 Adelie    male    2008          4098 
#>  6 Adelie    male    2009          3995.
#>  7 Adelie    <NA>    2007          3540 
#>  8 Chinstrap female  2007          3569.
#>  9 Chinstrap female  2008          3472.
#> 10 Chinstrap female  2009          3523.
#> # … with 12 more rows
…
