Chapter 24 Read CSVs | DoSS Toolkit
…
24.5.2 Exercise 2

Let’s look at a another data file, this time one that lives online.

Consider the following data about gifts given between 1999 and 2018 to U.S. federal employees from foreign government sources. The raw data can be found at https://raw.githubusercontent.com/tacookson/data/master/us-government-gifts/gifts.csv . We’ll use the URL to read it in.

read_csv("https://raw.githubusercontent.com/tacookson/data/master/us-government-gifts/gifts.csv")
#> # A tibble: 8,392 × 10
#>       id recipient agency_name year_received date_received
#>    <dbl> <chr>     <chr>               <dbl> <date>       
#>  1     1 President <NA>                 1999 NA           
#>  2     2 President <NA>                 1999 NA           
#>  3     3 President <NA>                 1999 NA           
#>  4     4 President <NA>                 1999 NA           
#>  5     5 President <NA>                 1999 NA           
#>  6     6 President <NA>                 1999 NA           
#>  7     7 President <NA>                 1999 NA           
#>  8     8 President <NA>                 1999 NA           
#>  9     9 President <NA>                 1999 NA           
#> 10    10 President <NA>                 1999 NA           
#> # … with 8,382 more rows, and 5 more variables:
#> #   donor <chr>, donor_country <chr>,
#> #   gift_description <chr>, value_usd <dbl>,
#> #   justification <chr>
…
