Chapter 59 tidyr package | DoSS Toolkit
…
59.4 Exercises

We will be looking at a data set of Broadway shows with variables about the performances,
attendance, and revenue for theaters that are part of The Broadway League. You can learn
more about the data set provided by Alex Cookson in this Git
repository as well as this corresponding blog
post. Take a
look at a subset of this data for the Winter Garden Theatre.

winter_garden
#> # A tibble: 44 × 2
#> # Groups:   week_number [2]
#>    week_number show 
#>          <dbl> <chr>
#>  1           1 Cats 
#>  2           2 Cats 
#>  3           1 Cats 
#>  4           2 Cats 
#>  5           1 Cats 
#>  6           2 Cats 
#>  7           1 Cats 
#>  8           2 Cats 
#>  9           1 Cats 
#> 10           2 Cats 
#> # … with 34 more rows
…
