Chapter 68 Working with dates | DoSS Toolkit
…
We can see that the timestamp column has an associated data type ‘dttm.’ This stands for
datetime. Given that this is already the correct data type, we can extract a lot of
information from it using lubridate functions.

# extracting year
caribou %>% mutate(year = year(timestamp))
#> # A tibble: 249,450 × 8
#>      event_id animal_id study_site season timestamp          
#>         <dbl> <chr>     <chr>      <chr>  <dttm>             
#>  1 2259197332 GR_C01    Graham     Winter 2001-02-21 05:00:00
#>  2 2259197333 GR_C01    Graham     Winter 2001-02-21 09:00:00
#>  3 2259197334 GR_C01    Graham     Winter 2001-02-21 13:00:00
#>  4 2259197335 GR_C01    Graham     Winter 2001-02-21 17:01:00
#>  5 2259197336 GR_C01    Graham     Winter 2001-02-21 21:00:00
#>  6 2259197337 GR_C01    Graham     Winter 2001-02-22 01:00:00
#>  7 2259197338 GR_C01    Graham     Winter 2001-02-22 05:00:00
#>  8 2259197339 GR_C01    Graham     Winter 2001-02-22 09:00:00
#>  9 2259197340 GR_C01    Graham     Winter 2001-02-22 13:00:00
#> 10 2259197341 GR_C01    Graham     Winter 2001-02-22 17:00:00
#> # … with 249,440 more rows, and 3 more variables:
#> #   longitude <dbl>, latitude <dbl>, year <dbl>

# extracting week day
caribou %>% mutate(week_day = wday(timestamp))
#> # A tibble: 249,450 × 8
#>      event_id animal_id study_site season timestamp          
#>         <dbl> <chr>     <chr>      <chr>  <dttm>             
#>  1 2259197332 GR_C01    Graham     Winter 2001-02-21 05:00:00
#>  2 2259197333 GR_C01    Graham     Winter 2001-02-21 09:00:00
#>  3 2259197334 GR_C01    Graham     Winter 2001-02-21 13:00:00
#>  4 2259197335 GR_C01    Graham     Winter 2001-02-21 17:01:00
#>  5 2259197336 GR_C01    Graham     Winter 2001-02-21 21:00:00
#>  6 2259197337 GR_C01    Graham     Winter 2001-02-22 01:00:00
#>  7 2259197338 GR_C01    Graham     Winter 2001-02-22 05:00:00
#>  8 2259197339 GR_C01    Graham     Winter 2001-02-22 09:00:00
#>  9 2259197340 GR_C01    Graham     Winter 2001-02-22 13:00:00
#> 10 2259197341 GR_C01    Graham     Winter 2001-02-22 17:00:00
#> # … with 249,440 more rows, and 3 more variables:
#> #   longitude <dbl>, latitude <dbl>, week_day <dbl>

# extracting whether it's a leap year!
caribou %>% mutate(leap_year = leap_year(timestamp))
#> # A tibble: 249,450 × 8
#>      event_id animal_id study_site season timestamp          
#>         <dbl> <chr>     <chr>      <chr>  <dttm>             
#>  1 2259197332 GR_C01    Graham     Winter 2001-02-21 05:00:00
#>  2 2259197333 GR_C01    Graham     Winter 2001-02-21 09:00:00
#>  3 2259197334 GR_C01    Graham     Winter 2001-02-21 13:00:00
#>  4 2259197335 GR_C01    Graham     Winter 2001-02-21 17:01:00
#>  5 2259197336 GR_C01    Graham     Winter 2001-02-21 21:00:00
#>  6 2259197337 GR_C01    Graham     Winter 2001-02-22 01:00:00
#>  7 2259197338 GR_C01    Graham     Winter 2001-02-22 05:00:00
#>  8 2259197339 GR_C01    Graham     Winter 2001-02-22 09:00:00
#>  9 2259197340 GR_C01    Graham     Winter 2001-02-22 13:00:00
#> 10 2259197341 GR_C01    Graham     Winter 2001-02-22 17:00:00
#> # … with 249,440 more rows, and 3 more variables:
#> #   longitude <dbl>, latitude <dbl>, leap_year <lgl>
…
