…
### Question 2

How many performances occurred per week?


```r
broadway %>%
  group_by(week_ending) %>%
  summarise(total_num_performances = sum(performances), 
            .groups = 'drop')
#> # A tibble: 1,812 × 2
#>    week_ending total_num_performances
#>    <date>                       <dbl>
#>  1 1985-06-09                     137
#>  2 1985-06-16                     139
#>  3 1985-06-23                     134
#>  4 1985-06-30                     137
#>  5 1985-07-07                     136
#>  6 1985-07-14                     137
#>  7 1985-07-21                     137
#>  8 1985-07-28                     121
#>  9 1985-08-04                     121
#> 10 1985-08-11                     121
#> # … with 1,802 more rows
```
…
### Question 3

How many performances _and_ previews occurred per week?


```r
broadway %>%
  group_by(week_ending) %>%
  summarise(total_num_performances = sum(performances),
            total_num_previews = sum(previews),
            .groups = 'drop')
#> # A tibble: 1,812 × 3
#>    week_ending total_num_performances total_num_previews
#>    <date>                       <dbl>              <dbl>
#>  1 1985-06-09                     137                 16
#>  2 1985-06-16                     139                  9
#>  3 1985-06-23                     134                  6
#>  4 1985-06-30                     137                  8
#>  5 1985-07-07                     136                  1
#>  6 1985-07-14                     137                  0
#>  7 1985-07-21                     137                  0
#>  8 1985-07-28                     121                  0
#>  9 1985-08-04                     121                  0
#> 10 1985-08-11                     121                  0
#> # … with 1,802 more rows
```
…
