…
Now we have a data frame with renamed columns.

What if we have a column that does not have a name? We can still name it by indexing the
column using base R function `names()`.


```r
personalities %>%
  rename(fictional_work = names(.)[2])
#> # A tibble: 213,600 × 11
#>    id    fictional_work name  gender spectrum spectrum_low
#>    <chr> <chr>          <chr> <chr>  <chr>    <chr>       
#>  1 A/4   Alien          Ash   male   BAP1     playful     
#>  2 A/4   Alien          Ash   male   BAP2     shy         
#>  3 A/4   Alien          Ash   male   BAP3     cheery      
#>  4 A/4   Alien          Ash   male   BAP4     masculine   
#>  5 A/4   Alien          Ash   male   BAP5     charming    
#>  6 A/4   Alien          Ash   male   BAP6     lewd        
#>  7 A/4   Alien          Ash   male   BAP7     intellectual
#>  8 A/4   Alien          Ash   male   BAP8     strict      
#>  9 A/4   Alien          Ash   male   BAP9     refined     
#> 10 A/4   Alien          Ash   male   BAP10    trusting    
#> # … with 213,590 more rows, and 5 more variables:
#> #   spectrum_high <chr>, is_emoji <lgl>, mean <dbl>,
#> #   ratings <dbl>, sd <dbl>
```
…
