…
## count()

`count()` is a function that can be used to summarize a data set in terms of the number of unique values of a certain variable or combination of variables.

Using `count()` on a data set produces a new table including each unique value or combination of values along with an integer value representing the number of times it appears in the data.

## Using count()

The data set below (`starwars`) contains information on characters in the the *Star Wars* film franchise. There are 30 unique characters in the data with five characteristics/measurements recorded for each.


```
#> # A tibble: 30 × 6
#>    name    hair_color skin_color eye_color homeworld species
#>    <chr>   <chr>      <chr>      <chr>     <chr>     <chr>  
#>  1 Luke S… blond      fair       blue      Tatooine  Human  
#>  2 C-3PO   <NA>       gold       yellow    Tatooine  Droid  
#>  3 R2-D2   <NA>       white, bl… red       Naboo     Droid  
#>  4 Darth … none       white      yellow    Tatooine  Human  
#>  5 Leia O… brown      light      brown     Alderaan  Human  
#>  6 Owen L… brown, gr… light      blue      Tatooine  Human  
#>  7 Beru W… brown      light      blue      Tatooine  Human  
#>  8 R5-D4   <NA>       white, red red       Tatooine  Droid  
#>  9 Biggs … black      light      brown     Tatooine  Human  
#> 10 Anakin… blond      fair       blue      Tatooine  Human  
#> # … with 20 more rows
```
…
### Question 3

How many columns does the output of `uncount(features, 2)` have?

  a. 1
  b. 2
  c.  3
  d. 4

For the Question 4 and 5, identify the code used to manipulate the `starwars` data set to match the output displayed. The original is included below for reference.

```
#> # A tibble: 30 × 6
#>    name    hair_color skin_color eye_color homeworld species
#>    <chr>   <chr>      <chr>      <chr>     <chr>     <chr>  
#>  1 Luke S… blond      fair       blue      Tatooine  Human  
#>  2 C-3PO   <NA>       gold       yellow    Tatooine  Droid  
#>  3 R2-D2   <NA>       white, bl… red       Naboo     Droid  
#>  4 Darth … none       white      yellow    Tatooine  Human  
#>  5 Leia O… brown      light      brown     Alderaan  Human  
#>  6 Owen L… brown, gr… light      blue      Tatooine  Human  
#>  7 Beru W… brown      light      blue      Tatooine  Human  
#>  8 R5-D4   <NA>       white, red red       Tatooine  Droid  
#>  9 Biggs … black      light      brown     Tatooine  Human  
#> 10 Anakin… blond      fair       blue      Tatooine  Human  
#> # … with 20 more rows
```
…
  a.  `count(starwars, skin_color, eye_color, sort=TRUE)`
  b. `count(starwars, skin_color, eye_color, sort=FALSE)`
  c. `count(starwars, c(skin_color, eye_color), sort=TRUE)`
  d. `count(starwars, c(skin_color, eye_color), sort=FALSE)`
  
### Question 5

```
#> # A tibble: 30 × 2
#>    name                unique
#>    <chr>                <int>
#>  1 Adi Gallia               1
#>  2 Anakin Skywalker         1
#>  3 Bail Prestor Organa      1
#>  4 Beru Whitesun lars       1
#>  5 Biggs Darklighter        1
#>  6 Boba Fett                1
#>  7 C-3PO                    1
#>  8 Cliegg Lars              1
#>  9 Cordé                    1
#> 10 Darth Vader              1
#> # … with 20 more rows
```
…
