…
## Questions

Lets start with loading the tidyverse and looking at the data.


```r
library(tidyverse)
```


```r
broadway
#> # A tibble: 47,524 × 8
#>    week_ending show   theatre  weekly_gross avg_ticket_price
#>    <date>      <chr>  <chr>           <dbl>            <dbl>
#>  1 1985-06-09  42nd … St. Jam…       282368             30.4
#>  2 1985-06-09  A Cho… Sam S. …       222584             27.2
#>  3 1985-06-09  Aren'… Brooks …       249272             33.8
#>  4 1985-06-09  Arms … Circle …        95688             20.9
#>  5 1985-06-09  As Is  Lyceum …        61059             20.8
#>  6 1985-06-09  Big R… Eugene …       255386             32.0
#>  7 1985-06-09  Bilox… Neil Si…       306839             28.3
#>  8 1985-06-09  Brigh… 46th St…       107392             18.9
#>  9 1985-06-09  Cats   Winter …       461880             38.4
#> 10 1985-06-09  Doubl… Ritz Th…        47452             17.5
#> # … with 47,514 more rows, and 3 more variables:
#> #   top_ticket_price <dbl>, performances <dbl>,
#> #   previews <dbl>
```
…
You can also learn more about `across()` by running `?across` in your console.

### Question 2

How do we provide a numeric summary for every show happening in a particular week?


```r
broadway %>%
  group_by(week_ending, show) %>%
  summarise(across(where(is.numeric), mean, na.rm = TRUE),
            .groups = 'drop')
#> # A tibble: 47,524 × 7
#>    week_ending show                   weekly_gross avg_ticket_price
#>    <date>      <chr>                         <dbl>            <dbl>
#>  1 1985-06-09  42nd Street                  282368             30.4
#>  2 1985-06-09  A Chorus Line                222584             27.2
#>  3 1985-06-09  Aren't We All?               249272             33.8
#>  4 1985-06-09  Arms and the Man              95688             20.9
#>  5 1985-06-09  As Is                         61059             20.8
#>  6 1985-06-09  Big River                    255386             32.0
#>  7 1985-06-09  Biloxi Blues                 306839             28.3
#>  8 1985-06-09  Brighton Beach Memoirs       107392             18.9
#>  9 1985-06-09  Cats                         461880             38.4
#> 10 1985-06-09  Doubles                       47452             17.5
#> # … with 47,514 more rows, and 3 more variables:
#> #   top_ticket_price <dbl>, performances <dbl>,
#> #   previews <dbl>
```
…
### Question 3

We can use mutate() and if_else() to change values within a column. For example, here
is what we would write if we wanted to change all rows with theatre Studio 54 to be 
called Studio 54 Theatre.


```r
broadway %>% 
    mutate(theatre = if_else(theatre == "Studio 54", "Studio 54 Theatre", theatre))
#> # A tibble: 47,524 × 8
#>    week_ending show   theatre  weekly_gross avg_ticket_price
#>    <date>      <chr>  <chr>           <dbl>            <dbl>
#>  1 1985-06-09  42nd … St. Jam…       282368             30.4
#>  2 1985-06-09  A Cho… Sam S. …       222584             27.2
#>  3 1985-06-09  Aren'… Brooks …       249272             33.8
#>  4 1985-06-09  Arms … Circle …        95688             20.9
#>  5 1985-06-09  As Is  Lyceum …        61059             20.8
#>  6 1985-06-09  Big R… Eugene …       255386             32.0
#>  7 1985-06-09  Bilox… Neil Si…       306839             28.3
#>  8 1985-06-09  Brigh… 46th St…       107392             18.9
#>  9 1985-06-09  Cats   Winter …       461880             38.4
#> 10 1985-06-09  Doubl… Ritz Th…        47452             17.5
#> # … with 47,514 more rows, and 3 more variables:
#> #   top_ticket_price <dbl>, performances <dbl>,
#> #   previews <dbl>
```

We can confirm this by filtering for these theatre names.


```r
broadway %>%
  mutate(theatre = if_else(theatre == "Studio 54", "Studio 54 Theatre", theatre)) %>%
  filter(theatre %in% c("Studio 54", "Studio 54 Theatre"))
#> # A tibble: 787 × 8
#>    week_ending show    theatre weekly_gross avg_ticket_price
#>    <date>      <chr>   <chr>          <dbl>            <dbl>
#>  1 1998-02-15  Cabaret Studio…        48008             58.4
#>  2 1998-02-22  Cabaret Studio…       172373             51.5
#>  3 1998-03-01  Cabaret Studio…       174178             50.8
#>  4 1998-03-08  Cabaret Studio…       177623             49.3
#>  5 1998-03-15  Cabaret Studio…       147752             48.3
#>  6 1998-03-22  Cabaret Studio…       151753             49.1
#>  7 1998-03-29  Cabaret Studio…       183802             48.7
#>  8 1998-04-05  Cabaret Studio…       194515             50.8
#>  9 1998-04-12  Cabaret Studio…       219786             54.2
#> 10 1998-04-19  Cabaret Studio…       196320             48.1
#> # … with 777 more rows, and 3 more variables:
#> #   top_ticket_price <dbl>, performances <dbl>,
#> #   previews <dbl>
```
…
