…
We can see that the timestamp column has an associated data type 'dttm.' This stands for
datetime. Given that this is already the correct data type, we can extract a lot of
information from it using `lubridate` functions.


```r
# extracting year
caribou %>% mutate(year = year(timestamp))
#> # A tibble: 249,450 × 8
#>     event_id animal_id study_site season timestamp          
#>        <dbl> <chr>     <chr>      <chr>  <dttm>             
#>  1    2.26e9 GR_C01    Graham     Winter 2001-02-21 05:00:00
#>  2    2.26e9 GR_C01    Graham     Winter 2001-02-21 09:00:00
#>  3    2.26e9 GR_C01    Graham     Winter 2001-02-21 13:00:00
#>  4    2.26e9 GR_C01    Graham     Winter 2001-02-21 17:01:00
#>  5    2.26e9 GR_C01    Graham     Winter 2001-02-21 21:00:00
#>  6    2.26e9 GR_C01    Graham     Winter 2001-02-22 01:00:00
#>  7    2.26e9 GR_C01    Graham     Winter 2001-02-22 05:00:00
#>  8    2.26e9 GR_C01    Graham     Winter 2001-02-22 09:00:00
#>  9    2.26e9 GR_C01    Graham     Winter 2001-02-22 13:00:00
#> 10    2.26e9 GR_C01    Graham     Winter 2001-02-22 17:00:00
#> # … with 249,440 more rows, and 3 more variables:
#> #   longitude <dbl>, latitude <dbl>, year <dbl>

# extracting week day
caribou %>% mutate(week_day = wday(timestamp))
#> # A tibble: 249,450 × 8
#>     event_id animal_id study_site season timestamp          
#>        <dbl> <chr>     <chr>      <chr>  <dttm>             
#>  1    2.26e9 GR_C01    Graham     Winter 2001-02-21 05:00:00
#>  2    2.26e9 GR_C01    Graham     Winter 2001-02-21 09:00:00
#>  3    2.26e9 GR_C01    Graham     Winter 2001-02-21 13:00:00
#>  4    2.26e9 GR_C01    Graham     Winter 2001-02-21 17:01:00
#>  5    2.26e9 GR_C01    Graham     Winter 2001-02-21 21:00:00
#>  6    2.26e9 GR_C01    Graham     Winter 2001-02-22 01:00:00
#>  7    2.26e9 GR_C01    Graham     Winter 2001-02-22 05:00:00
#>  8    2.26e9 GR_C01    Graham     Winter 2001-02-22 09:00:00
#>  9    2.26e9 GR_C01    Graham     Winter 2001-02-22 13:00:00
#> 10    2.26e9 GR_C01    Graham     Winter 2001-02-22 17:00:00
#> # … with 249,440 more rows, and 3 more variables:
#> #   longitude <dbl>, latitude <dbl>, week_day <dbl>

# extracting whether it's a leap year!
caribou %>% mutate(leap_year = leap_year(timestamp))
#> # A tibble: 249,450 × 8
#>     event_id animal_id study_site season timestamp          
#>        <dbl> <chr>     <chr>      <chr>  <dttm>             
#>  1    2.26e9 GR_C01    Graham     Winter 2001-02-21 05:00:00
#>  2    2.26e9 GR_C01    Graham     Winter 2001-02-21 09:00:00
#>  3    2.26e9 GR_C01    Graham     Winter 2001-02-21 13:00:00
#>  4    2.26e9 GR_C01    Graham     Winter 2001-02-21 17:01:00
#>  5    2.26e9 GR_C01    Graham     Winter 2001-02-21 21:00:00
#>  6    2.26e9 GR_C01    Graham     Winter 2001-02-22 01:00:00
#>  7    2.26e9 GR_C01    Graham     Winter 2001-02-22 05:00:00
#>  8    2.26e9 GR_C01    Graham     Winter 2001-02-22 09:00:00
#>  9    2.26e9 GR_C01    Graham     Winter 2001-02-22 13:00:00
#> 10    2.26e9 GR_C01    Graham     Winter 2001-02-22 17:00:00
#> # … with 249,440 more rows, and 3 more variables:
#> #   longitude <dbl>, latitude <dbl>, leap_year <lgl>
```
…
