Chapter 32 summarise | DoSS Toolkit
…
32.3.2 Question 2

How many performances occurred per week?

broadway %>%
  group_by(week_ending) %>%
  summarise(total_num_performances = sum(performances), 
            .groups = 'drop')
#> # A tibble: 1,812 × 2
#>    week_ending total_num_performances
#>    <date>                       <dbl>
#>  1 1985-06-09                     137
#>  2 1985-06-16                     139
#>  3 1985-06-23                     134
#>  4 1985-06-30                     137
#>  5 1985-07-07                     136
#>  6 1985-07-14                     137
#>  7 1985-07-21                     137
#>  8 1985-07-28                     121
#>  9 1985-08-04                     121
#> 10 1985-08-11                     121
#> # … with 1,802 more rows
The code for answering this second question is similar to the first question, except that
we need to group by the week_ending variable which describes each distinct week. After
grouping by the week, we use the summarise function to sum up all the performances for
each week.

32.3.3 Question 3

How many performances and previews occurred per week?

broadway %>%
  group_by(week_ending) %>%
  summarise(total_num_performances = sum(performances),
            total_num_previews = sum(previews),
            .groups = 'drop')
#> # A tibble: 1,812 × 3
#>    week_ending total_num_performances total_num_previews
#>    <date>                       <dbl>              <dbl>
#>  1 1985-06-09                     137                 16
#>  2 1985-06-16                     139                  9
#>  3 1985-06-23                     134                  6
#>  4 1985-06-30                     137                  8
#>  5 1985-07-07                     136                  1
#>  6 1985-07-14                     137                  0
#>  7 1985-07-21                     137                  0
#>  8 1985-07-28                     121                  0
#>  9 1985-08-04                     121                  0
#> 10 1985-08-11                     121                  0
#> # … with 1,802 more rows

Here, we are taking two sums, the sum of performances and the sum of previews, for each
distinct week.

32.3.4 Question 4

How many performances occurred per theatre within each week?

broadway %>%
  group_by(week_ending, theatre) %>%
  summarise(total_num_performances = sum(performances),
            .groups = 'drop')
#> # A tibble: 45,776 × 3
#>    week_ending theatre                      total_num_perfo…
#>                                             
#>  1 1985-06-09  46th Street Theatre                         8
#>  2 1985-06-09  Ambassador Theatre                          8
#>  3 1985-06-09  Booth Theatre                               8
#>  4 1985-06-09  Broadhurst Theatre                          0
#>  5 1985-06-09  Broadway Theatre                            8
#>  6 1985-06-09  Brooks Atkinson Theatre                     8
#>  7 1985-06-09  Circle in the Square Theatre                8
#>  8 1985-06-09  Edison Theatre                              9
#>  9 1985-06-09  Eugene O'Neill Theatre                      8
#> 10 1985-06-09  Gershwin Theatre                            0
#> # … with 45,766 more rows
…
