Chapter 111 tidymodels | DoSS Toolkit
…
Bootstrap Sampling
Bootstrap sampling can be easily conducted by using the function bootstraps(). Bootstrap is sampling with replacement to estimate the variability in a statistic of interest to assess the accuracy of an estimate from resampling from a larger population.

bootstraps(
  mtcars,
  times = 25
)
#> # Bootstrap sampling 
#> # A tibble: 25 × 2
#>    splits          id         
#>    <list>          <chr>      
#>  1 <split [32/13]> Bootstrap01
#>  2 <split [32/6]>  Bootstrap02
#>  3 <split [32/12]> Bootstrap03
#>  4 <split [32/14]> Bootstrap04
#>  5 <split [32/11]> Bootstrap05
#>  6 <split [32/10]> Bootstrap06
#>  7 <split [32/13]> Bootstrap07
#>  8 <split [32/13]> Bootstrap08
#>  9 <split [32/12]> Bootstrap09
#> 10 <split [32/13]> Bootstrap10
#> # … with 15 more rows
…
